info face="Commando" size=24 bold=0 italic=0 charset="" unicode=0 stretchH=100 smooth=1 aa=1 padding=2,5,1,1 spacing=-2,-1
common lineHeight=24 base=17 scaleW=512 scaleH=512 pages=1 packed=0
page id=0 file="commandoCometCrash24.png"
chars count=65
char id=10      x=0    y=0    width=0    height=0    xoffset=-1   yoffset=0    xadvance=4    page=0    chnl=0 
char id=32      x=0    y=0    width=0    height=0    xoffset=-1   yoffset=0    xadvance=9    page=0    chnl=0 
char id=34      x=0    y=0    width=0    height=0    xoffset=-1   yoffset=0    xadvance=10   page=0    chnl=0 
char id=48      x=473  y=25   width=20   height=21   xoffset=-2   yoffset=-3   xadvance=16   page=0    chnl=0 
char id=49      x=294  y=25   width=17   height=21   xoffset=-2   yoffset=-3   xadvance=14   page=0    chnl=0 
char id=50      x=311  y=25   width=22   height=21   xoffset=-2   yoffset=-3   xadvance=16   page=0    chnl=0 
char id=51      x=333  y=25   width=20   height=21   xoffset=-2   yoffset=-3   xadvance=16   page=0    chnl=0 
char id=52      x=353  y=25   width=20   height=21   xoffset=-1   yoffset=-3   xadvance=17   page=0    chnl=0 
char id=53      x=373  y=25   width=22   height=21   xoffset=-2   yoffset=-3   xadvance=16   page=0    chnl=0 
char id=54      x=395  y=25   width=20   height=21   xoffset=-2   yoffset=-3   xadvance=16   page=0    chnl=0 
char id=55      x=415  y=25   width=18   height=21   xoffset=1    yoffset=-3   xadvance=17   page=0    chnl=0 
char id=56      x=433  y=25   width=20   height=21   xoffset=-2   yoffset=-3   xadvance=16   page=0    chnl=0 
char id=57      x=453  y=25   width=20   height=21   xoffset=-2   yoffset=-3   xadvance=17   page=0    chnl=0 
char id=65      x=20   y=0    width=22   height=21   xoffset=-2   yoffset=-3   xadvance=16   page=0    chnl=0 
char id=66      x=42   y=0    width=22   height=21   xoffset=-2   yoffset=-3   xadvance=16   page=0    chnl=0 
char id=67      x=64   y=0    width=22   height=21   xoffset=-2   yoffset=-3   xadvance=16   page=0    chnl=0 
char id=68      x=86   y=0    width=22   height=21   xoffset=-2   yoffset=-3   xadvance=16   page=0    chnl=0 
char id=69      x=108  y=0    width=22   height=21   xoffset=-2   yoffset=-3   xadvance=16   page=0    chnl=0 
char id=70      x=130  y=0    width=21   height=21   xoffset=-2   yoffset=-3   xadvance=17   page=0    chnl=0 
char id=71      x=151  y=0    width=20   height=21   xoffset=-2   yoffset=-3   xadvance=16   page=0    chnl=0 
char id=72      x=171  y=0    width=21   height=21   xoffset=-2   yoffset=-3   xadvance=17   page=0    chnl=0 
char id=73      x=192  y=0    width=16   height=21   xoffset=-3   yoffset=-3   xadvance=10   page=0    chnl=0 
char id=74      x=208  y=0    width=22   height=21   xoffset=-2   yoffset=-3   xadvance=16   page=0    chnl=0 
char id=75      x=230  y=0    width=22   height=21   xoffset=-2   yoffset=-3   xadvance=17   page=0    chnl=0 
char id=76      x=252  y=0    width=18   height=21   xoffset=-2   yoffset=-3   xadvance=16   page=0    chnl=0 
char id=77      x=270  y=0    width=27   height=21   xoffset=-2   yoffset=-3   xadvance=23   page=0    chnl=0 
char id=78      x=297  y=0    width=22   height=21   xoffset=-2   yoffset=-3   xadvance=16   page=0    chnl=0 
char id=79      x=319  y=0    width=20   height=21   xoffset=-2   yoffset=-3   xadvance=16   page=0    chnl=0 
char id=80      x=339  y=0    width=22   height=21   xoffset=-2   yoffset=-3   xadvance=16   page=0    chnl=0 
char id=81      x=0    y=0    width=20   height=25   xoffset=-2   yoffset=-3   xadvance=16   page=0    chnl=0 
char id=82      x=361  y=0    width=21   height=21   xoffset=-2   yoffset=-3   xadvance=16   page=0    chnl=0 
char id=83      x=382  y=0    width=20   height=21   xoffset=-2   yoffset=-3   xadvance=16   page=0    chnl=0 
char id=84      x=402  y=0    width=19   height=21   xoffset=0    yoffset=-3   xadvance=17   page=0    chnl=0 
char id=85      x=421  y=0    width=22   height=21   xoffset=-2   yoffset=-3   xadvance=16   page=0    chnl=0 
char id=86      x=443  y=0    width=21   height=21   xoffset=-1   yoffset=-3   xadvance=16   page=0    chnl=0 
char id=87      x=464  y=0    width=26   height=21   xoffset=-1   yoffset=-3   xadvance=23   page=0    chnl=0 
char id=88      x=0    y=25   width=22   height=21   xoffset=-2   yoffset=-3   xadvance=16   page=0    chnl=0 
char id=89      x=490  y=0    width=19   height=21   xoffset=1    yoffset=-3   xadvance=16   page=0    chnl=0 
char id=90      x=22   y=25   width=22   height=21   xoffset=-2   yoffset=-3   xadvance=16   page=0    chnl=0 
char id=97      x=44   y=25   width=22   height=21   xoffset=-2   yoffset=-3   xadvance=16   page=0    chnl=0 
char id=98      x=66   y=25   width=22   height=21   xoffset=-2   yoffset=-3   xadvance=16   page=0    chnl=0 
char id=99      x=88   y=25   width=22   height=21   xoffset=-2   yoffset=-3   xadvance=16   page=0    chnl=0 
char id=100     x=110  y=25   width=22   height=21   xoffset=-2   yoffset=-3   xadvance=16   page=0    chnl=0 
char id=101     x=132  y=25   width=22   height=21   xoffset=-2   yoffset=-3   xadvance=16   page=0    chnl=0 
char id=102     x=154  y=25   width=21   height=21   xoffset=-2   yoffset=-3   xadvance=17   page=0    chnl=0 
char id=103     x=175  y=25   width=20   height=21   xoffset=-2   yoffset=-3   xadvance=16   page=0    chnl=0 
char id=104     x=195  y=25   width=21   height=21   xoffset=-2   yoffset=-3   xadvance=17   page=0    chnl=0 
char id=105     x=216  y=25   width=16   height=21   xoffset=-3   yoffset=-3   xadvance=10   page=0    chnl=0 
char id=106     x=232  y=25   width=22   height=21   xoffset=-2   yoffset=-3   xadvance=16   page=0    chnl=0 
char id=107     x=254  y=25   width=22   height=21   xoffset=-2   yoffset=-3   xadvance=17   page=0    chnl=0 
char id=108     x=276  y=25   width=18   height=21   xoffset=-2   yoffset=-3   xadvance=16   page=0    chnl=0 
char id=109     x=270  y=0    width=27   height=21   xoffset=-2   yoffset=-3   xadvance=23   page=0    chnl=0 
char id=110     x=297  y=0    width=22   height=21   xoffset=-2   yoffset=-3   xadvance=16   page=0    chnl=0 
char id=111     x=319  y=0    width=20   height=21   xoffset=-2   yoffset=-3   xadvance=16   page=0    chnl=0 
char id=112     x=339  y=0    width=22   height=21   xoffset=-2   yoffset=-3   xadvance=16   page=0    chnl=0 
char id=113     x=0    y=0    width=20   height=25   xoffset=-2   yoffset=-3   xadvance=16   page=0    chnl=0 
char id=114     x=361  y=0    width=21   height=21   xoffset=-2   yoffset=-3   xadvance=16   page=0    chnl=0 
char id=115     x=382  y=0    width=20   height=21   xoffset=-2   yoffset=-3   xadvance=16   page=0    chnl=0 
char id=116     x=402  y=0    width=19   height=21   xoffset=0    yoffset=-3   xadvance=17   page=0    chnl=0 
char id=117     x=421  y=0    width=22   height=21   xoffset=-2   yoffset=-3   xadvance=16   page=0    chnl=0 
char id=118     x=443  y=0    width=21   height=21   xoffset=-1   yoffset=-3   xadvance=16   page=0    chnl=0 
char id=119     x=464  y=0    width=26   height=21   xoffset=-1   yoffset=-3   xadvance=23   page=0    chnl=0 
char id=120     x=0    y=25   width=22   height=21   xoffset=-2   yoffset=-3   xadvance=16   page=0    chnl=0 
char id=121     x=490  y=0    width=19   height=21   xoffset=1    yoffset=-3   xadvance=16   page=0    chnl=0 
char id=122     x=22   y=25   width=22   height=21   xoffset=-2   yoffset=-3   xadvance=16   page=0    chnl=0 
kernings count=0
