info face="Commando" size=48 bold=1 italic=0 charset="" unicode=0 stretchH=100 smooth=1 aa=1 padding=1,1,1,1 spacing=-2,-2
common lineHeight=44 base=35 scaleW=512 scaleH=512 pages=1 packed=0
page id=0 file="GameOverFont.png"
chars count=65
char id=10      x=0    y=0    width=0    height=0    xoffset=-1   yoffset=0    xadvance=0    page=0    chnl=0 
char id=32      x=0    y=0    width=0    height=0    xoffset=-1   yoffset=0    xadvance=13   page=0    chnl=0 
char id=34      x=0    y=0    width=0    height=0    xoffset=-1   yoffset=0    xadvance=14   page=0    chnl=0 
char id=48      x=445  y=117  width=31   height=36   xoffset=-2   yoffset=0    xadvance=27   page=0    chnl=0 
char id=49      x=194  y=44   width=24   height=37   xoffset=-2   yoffset=-1   xadvance=24   page=0    chnl=0 
char id=50      x=218  y=44   width=32   height=37   xoffset=-2   yoffset=-1   xadvance=28   page=0    chnl=0 
char id=51      x=264  y=117  width=31   height=36   xoffset=-2   yoffset=0    xadvance=27   page=0    chnl=0 
char id=52      x=250  y=44   width=30   height=37   xoffset=0    yoffset=-1   xadvance=28   page=0    chnl=0 
char id=53      x=295  y=117  width=32   height=36   xoffset=-2   yoffset=0    xadvance=28   page=0    chnl=0 
char id=54      x=327  y=117  width=31   height=36   xoffset=-2   yoffset=0    xadvance=27   page=0    chnl=0 
char id=55      x=358  y=117  width=26   height=36   xoffset=4    yoffset=0    xadvance=28   page=0    chnl=0 
char id=56      x=384  y=117  width=31   height=36   xoffset=-2   yoffset=0    xadvance=27   page=0    chnl=0 
char id=57      x=415  y=117  width=30   height=36   xoffset=-1   yoffset=0    xadvance=28   page=0    chnl=0 
char id=65      x=280  y=44   width=32   height=36   xoffset=-2   yoffset=0    xadvance=28   page=0    chnl=0 
char id=66      x=312  y=44   width=32   height=36   xoffset=-2   yoffset=0    xadvance=28   page=0    chnl=0 
char id=67      x=344  y=44   width=31   height=36   xoffset=-1   yoffset=0    xadvance=28   page=0    chnl=0 
char id=68      x=375  y=44   width=32   height=36   xoffset=-2   yoffset=0    xadvance=28   page=0    chnl=0 
char id=69      x=407  y=44   width=33   height=36   xoffset=-1   yoffset=0    xadvance=28   page=0    chnl=0 
char id=70      x=440  y=44   width=33   height=36   xoffset=-2   yoffset=0    xadvance=29   page=0    chnl=0 
char id=71      x=473  y=44   width=31   height=36   xoffset=-2   yoffset=0    xadvance=27   page=0    chnl=0 
char id=72      x=62   y=0    width=33   height=37   xoffset=-2   yoffset=-1   xadvance=29   page=0    chnl=0 
char id=73      x=95   y=0    width=20   height=37   xoffset=-3   yoffset=-1   xadvance=14   page=0    chnl=0 
char id=74      x=115  y=0    width=33   height=37   xoffset=-2   yoffset=-1   xadvance=27   page=0    chnl=0 
char id=75      x=148  y=0    width=34   height=37   xoffset=-3   yoffset=-1   xadvance=28   page=0    chnl=0 
char id=76      x=182  y=0    width=26   height=37   xoffset=-2   yoffset=-1   xadvance=28   page=0    chnl=0 
char id=77      x=0    y=81   width=44   height=36   xoffset=-2   yoffset=0    xadvance=40   page=0    chnl=0 
char id=78      x=44   y=81   width=32   height=36   xoffset=-2   yoffset=0    xadvance=28   page=0    chnl=0 
char id=79      x=76   y=81   width=31   height=36   xoffset=-2   yoffset=0    xadvance=27   page=0    chnl=0 
char id=80      x=107  y=81   width=32   height=36   xoffset=-2   yoffset=0    xadvance=28   page=0    chnl=0 
char id=81      x=0    y=0    width=31   height=44   xoffset=-2   yoffset=0    xadvance=27   page=0    chnl=0 
char id=82      x=139  y=81   width=33   height=36   xoffset=-3   yoffset=0    xadvance=28   page=0    chnl=0 
char id=83      x=172  y=81   width=31   height=36   xoffset=-2   yoffset=0    xadvance=27   page=0    chnl=0 
char id=84      x=203  y=81   width=27   height=36   xoffset=3    yoffset=0    xadvance=28   page=0    chnl=0 
char id=85      x=208  y=0    width=32   height=37   xoffset=-2   yoffset=-1   xadvance=28   page=0    chnl=0 
char id=86      x=240  y=0    width=31   height=37   xoffset=0    yoffset=-1   xadvance=27   page=0    chnl=0 
char id=87      x=271  y=0    width=43   height=37   xoffset=1    yoffset=-1   xadvance=40   page=0    chnl=0 
char id=88      x=314  y=0    width=34   height=37   xoffset=-2   yoffset=-1   xadvance=28   page=0    chnl=0 
char id=89      x=348  y=0    width=28   height=37   xoffset=3    yoffset=-1   xadvance=27   page=0    chnl=0 
char id=90      x=230  y=81   width=34   height=36   xoffset=-2   yoffset=0    xadvance=28   page=0    chnl=0 
char id=97      x=264  y=81   width=32   height=36   xoffset=-2   yoffset=0    xadvance=28   page=0    chnl=0 
char id=98      x=296  y=81   width=32   height=36   xoffset=-2   yoffset=0    xadvance=28   page=0    chnl=0 
char id=99      x=328  y=81   width=31   height=36   xoffset=-1   yoffset=0    xadvance=28   page=0    chnl=0 
char id=100     x=359  y=81   width=32   height=36   xoffset=-2   yoffset=0    xadvance=28   page=0    chnl=0 
char id=101     x=391  y=81   width=33   height=36   xoffset=-2   yoffset=0    xadvance=27   page=0    chnl=0 
char id=102     x=424  y=81   width=33   height=36   xoffset=-2   yoffset=0    xadvance=29   page=0    chnl=0 
char id=103     x=457  y=81   width=31   height=36   xoffset=-2   yoffset=0    xadvance=27   page=0    chnl=0 
char id=104     x=376  y=0    width=33   height=37   xoffset=-2   yoffset=-1   xadvance=29   page=0    chnl=0 
char id=105     x=409  y=0    width=20   height=37   xoffset=-3   yoffset=-1   xadvance=14   page=0    chnl=0 
char id=106     x=429  y=0    width=33   height=37   xoffset=-2   yoffset=-1   xadvance=27   page=0    chnl=0 
char id=107     x=462  y=0    width=34   height=37   xoffset=-3   yoffset=-1   xadvance=28   page=0    chnl=0 
char id=108     x=0    y=44   width=26   height=37   xoffset=-2   yoffset=-1   xadvance=26   page=0    chnl=0 
char id=109     x=0    y=117  width=44   height=36   xoffset=-2   yoffset=0    xadvance=40   page=0    chnl=0 
char id=110     x=44   y=117  width=32   height=36   xoffset=-2   yoffset=0    xadvance=28   page=0    chnl=0 
char id=111     x=76   y=117  width=31   height=36   xoffset=-2   yoffset=0    xadvance=27   page=0    chnl=0 
char id=112     x=107  y=117  width=32   height=36   xoffset=-2   yoffset=0    xadvance=28   page=0    chnl=0 
char id=113     x=31   y=0    width=31   height=44   xoffset=-2   yoffset=0    xadvance=27   page=0    chnl=0 
char id=114     x=139  y=117  width=33   height=36   xoffset=-3   yoffset=0    xadvance=28   page=0    chnl=0 
char id=115     x=172  y=117  width=31   height=36   xoffset=-2   yoffset=0    xadvance=27   page=0    chnl=0 
char id=116     x=203  y=117  width=27   height=36   xoffset=3    yoffset=0    xadvance=28   page=0    chnl=0 
char id=117     x=26   y=44   width=32   height=37   xoffset=-2   yoffset=-1   xadvance=28   page=0    chnl=0 
char id=118     x=58   y=44   width=31   height=37   xoffset=0    yoffset=-1   xadvance=27   page=0    chnl=0 
char id=119     x=89   y=44   width=43   height=37   xoffset=1    yoffset=-1   xadvance=40   page=0    chnl=0 
char id=120     x=132  y=44   width=34   height=37   xoffset=-2   yoffset=-1   xadvance=28   page=0    chnl=0 
char id=121     x=166  y=44   width=28   height=37   xoffset=3    yoffset=-1   xadvance=27   page=0    chnl=0 
char id=122     x=230  y=117  width=34   height=36   xoffset=-2   yoffset=0    xadvance=28   page=0    chnl=0 
kernings count=0
